\contentsline {section}{\numberline {1}COMP10120 First year team project}{2}
\contentsline {subsection}{\numberline {1.1}Things I like most about this course}{2}
\contentsline {subsection}{\numberline {1.2}Things I like least about this course}{2}
\contentsline {section}{\numberline {2}COMP12111 Fundamentals of Computer Engineering}{2}
\contentsline {subsection}{\numberline {2.1}Things I like most about this course}{2}
\contentsline {subsection}{\numberline {2.2}Things I like least about this course}{3}
\contentsline {section}{\numberline {3}COMP16120 Object Oriented Programming with Java }{3}
\contentsline {subsection}{\numberline {3.1}Things I like most about this course}{3}
\contentsline {subsection}{\numberline {3.2}Things I like least about this course}{3}
