\relax 
\@writefile{toc}{\contentsline {section}{\numberline {1}Bleak House}{2}}
\@writefile{toc}{\contentsline {section}{\numberline {2}My Giberish}{2}}
\@writefile{toc}{\contentsline {section}{\numberline {3}Lorem Ipsum}{2}}
