\relax 
\ifx\hyper@anchor\@undefined
\global \let \oldcontentsline\contentsline
\gdef \contentsline#1#2#3#4{\oldcontentsline{#1}{#2}{#3}}
\global \let \oldnewlabel\newlabel
\gdef \newlabel#1#2{\newlabelxx{#1}#2}
\gdef \newlabelxx#1#2#3#4#5#6{\oldnewlabel{#1}{{#2}{#3}}}
\AtEndDocument{\let \contentsline\oldcontentsline
\let \newlabel\oldnewlabel}
\else
\global \let \hyper@last\relax 
\fi

\@writefile{toc}{\contentsline {section}{\numberline {1}Tools and techniques}{3}{section.1}}
\@writefile{toc}{\contentsline {section}{\numberline {2}Concepts and principles}{4}{section.2}}
\@writefile{toc}{\contentsline {section}{\numberline {3}Skills I developed}{4}{section.3}}
\@writefile{toc}{\contentsline {section}{\numberline {4}Functioning as a team}{5}{section.4}}
\@writefile{toc}{\contentsline {section}{\numberline {5}The future}{5}{section.5}}
