\contentsline {section}{\numberline {1}Tools and techniques}{3}{section.1}
\contentsline {section}{\numberline {2}Concepts and principles}{4}{section.2}
\contentsline {section}{\numberline {3}Skills I developed}{4}{section.3}
\contentsline {section}{\numberline {4}Functioning as a team}{5}{section.4}
\contentsline {section}{\numberline {5}The future}{5}{section.5}
