\relax 
\ifx\hyper@anchor\@undefined
\global \let \oldcontentsline\contentsline
\gdef \contentsline#1#2#3#4{\oldcontentsline{#1}{#2}{#3}}
\global \let \oldnewlabel\newlabel
\gdef \newlabel#1#2{\newlabelxx{#1}#2}
\gdef \newlabelxx#1#2#3#4#5#6{\oldnewlabel{#1}{{#2}{#3}}}
\AtEndDocument{\let \contentsline\oldcontentsline
\let \newlabel\oldnewlabel}
\else
\global \let \hyper@last\relax 
\fi

\@writefile{toc}{\contentsline {section}{\numberline {1}Introduction to ethical frameworks}{3}{section.1}}
\@writefile{toc}{\contentsline {section}{\numberline {2}ACM Code of Ethics and Professional Conduct}{3}{section.2}}
\@writefile{toc}{\contentsline {section}{\numberline {3}Application of ACM Code of Ethics to ``Killer Robot'' Case}{4}{section.3}}
\@writefile{toc}{\contentsline {subsection}{\numberline {3.1}Avoid harm to others}{4}{subsection.3.1}}
\@writefile{toc}{\contentsline {subsection}{\numberline {3.2}Be honest and trustworthy}{4}{subsection.3.2}}
\@writefile{toc}{\contentsline {subsection}{\numberline {3.3}Give proper credit for intellectual property}{4}{subsection.3.3}}
\@writefile{toc}{\contentsline {subsection}{\numberline {3.4}Strive to achieve the highest quality}{4}{subsection.3.4}}
\@writefile{toc}{\contentsline {subsection}{\numberline {3.5}Accept and provide appropriate professional review}{5}{subsection.3.5}}
\@writefile{toc}{\contentsline {subsection}{\numberline {3.6}Manage personnel and resources to design and build information systems that enhance the quality of working life}{5}{subsection.3.6}}
\@writefile{toc}{\contentsline {section}{\numberline {4}ACM Code of Ethics and other ethical frameworks}{5}{section.4}}
\bibcite{ACM}{1}
\bibcite{ACM2}{2}
\bibcite{Google}{3}
\bibcite{IEEE}{4}
\bibcite{Silicon Techtronics}{5}
\bibcite{ACM3}{6}
\bibcite{ACM4}{7}
